causedBy
https
https
HTTPS
HTTPS
HTTPS
HTTPS
HTTPS
HTTPS
JKS
JSON
JSON
JSON
keyspace
keystore
keystore
KEYSTORE
microservice
microservice
reconnection
reconnection
reconnection
TBD
timeseries
webservices
webservices
whitespace
WriteTimeoutException
WriteTimeoutException
WriteTimeoutExceptions
