\relax 
\providecommand\hyper@newdestlabel[2]{}
\providecommand\HyperFirstAtBeginDocument{\AtBeginDocument}
\HyperFirstAtBeginDocument{\ifx\hyper@anchor\@undefined
\global\let\oldcontentsline\contentsline
\gdef\contentsline#1#2#3#4{\oldcontentsline{#1}{#2}{#3}}
\global\let\oldnewlabel\newlabel
\gdef\newlabel#1#2{\newlabelxx{#1}#2}
\gdef\newlabelxx#1#2#3#4#5#6{\oldnewlabel{#1}{{#2}{#3}}}
\AtEndDocument{\ifx\hyper@anchor\@undefined
\let\contentsline\oldcontentsline
\let\newlabel\oldnewlabel
\fi}
\fi}
\global\let\hyper@last\relax 
\gdef\HyperFirstAtBeginDocument#1{#1}
\providecommand\HyField@AuxAddToFields[1]{}
\providecommand\HyField@AuxAddToCoFields[2]{}
\pgfsyspdfmark {pgfid2}{4736286}{50644704}
\providecommand \oddpage@label [2]{}
\providecommand\tcolorbox@label[2]{}
\@writefile{toc}{\vskip -40pt}
\babel@aux{english}{}
\pgfsyspdfmark {pgfid1}{4736286}{49989344}
\newlabel{warranty}{{}{i}{}{Doc-Start}{}}
\newlabel{disclaimer}{{}{i}{}{Doc-Start}{}}
\newlabel{copyright-notices}{{}{i}{}{Doc-Start}{}}
\newlabel{trademark-notices}{{}{i}{}{Doc-Start}{}}
\newlabel{contact-us}{{}{i}{}{Doc-Start}{}}
\newlabel{ag/index::doc}{{}{1}{}{section*.2}{}}
\@writefile{toc}{\contentsline {chapter}{\numberline {1}Introduction}{1}{chapter.1}}
\@writefile{lof}{\addvspace {10\p@ }}
\@writefile{lot}{\addvspace {10\p@ }}
\newlabel{ag/introduction/index:introduction}{{1}{1}{Introduction}{chapter.1}{}}
\newlabel{ag/introduction/index:administration-guide}{{1}{1}{Introduction}{chapter.1}{}}
\newlabel{ag/introduction/index::doc}{{1}{1}{Introduction}{chapter.1}{}}
\@writefile{toc}{\contentsline {section}{\numberline {1.1}What is AC CORE UI OPS?}{1}{section.1.1}}
\newlabel{ag/introduction/index:what-is-project}{{1.1}{1}{What is AC CORE UI OPS?}{section.1.1}{}}
\@writefile{toc}{\contentsline {section}{\numberline {1.2}How does it work?}{1}{section.1.2}}
\newlabel{ag/introduction/index:how-does-it-work}{{1.2}{1}{How does it work?}{section.1.2}{}}
\@writefile{toc}{\contentsline {chapter}{\numberline {2}Installation}{2}{chapter.2}}
\@writefile{lof}{\addvspace {10\p@ }}
\@writefile{lot}{\addvspace {10\p@ }}
\newlabel{ag/installation/index:installation}{{2}{2}{Installation}{chapter.2}{}}
\newlabel{ag/installation/index::doc}{{2}{2}{Installation}{chapter.2}{}}
\newlabel{ag/installation/index:ag-installation}{{2}{2}{Installation}{chapter.2}{}}
\@writefile{toc}{\contentsline {section}{\numberline {2.1}Setup}{2}{section.2.1}}
\newlabel{ag/installation/index:setup}{{2.1}{2}{Setup}{section.2.1}{}}
\@writefile{toc}{\contentsline {subsection}{\numberline {2.1.1}Requirements}{2}{subsection.2.1.1}}
\newlabel{ag/installation/index:requirements}{{2.1.1}{2}{Requirements}{subsection.2.1.1}{}}
\@writefile{toc}{\contentsline {subsection}{\numberline {2.1.2}AC Server}{2}{subsection.2.1.2}}
\newlabel{ag/installation/index:ac-server}{{2.1.2}{2}{AC Server}{subsection.2.1.2}{}}
\@writefile{toc}{\contentsline {subsection}{\numberline {2.1.3}Configuring the KIT}{2}{subsection.2.1.3}}
\newlabel{ag/installation/index:configuring-the-kit}{{2.1.3}{2}{Configuring the KIT}{subsection.2.1.3}{}}
\@writefile{toc}{\contentsline {subsubsection}{\numberline {2.1.3.1}Environment variables for UI Kit}{2}{subsubsection.2.1.3.1}}
\newlabel{ag/installation/index:environment-variables-for-ui-kit}{{2.1.3.1}{2}{Environment variables for UI Kit}{subsubsection.2.1.3.1}{}}
\@writefile{toc}{\contentsline {subsubsection}{\numberline {2.1.3.2}Starting the Core UI Service}{3}{subsubsection.2.1.3.2}}
\newlabel{ag/installation/index:starting-the-core-ui-service}{{2.1.3.2}{3}{Starting the Core UI Service}{subsubsection.2.1.3.2}{}}
\pgfsyspdfmark {pgfid4}{4736286}{50644704}
\pgfsyspdfmark {pgfid3}{19579138}{49989344}
