\relax 
\providecommand\hyper@newdestlabel[2]{}
\providecommand\HyperFirstAtBeginDocument{\AtBeginDocument}
\HyperFirstAtBeginDocument{\ifx\hyper@anchor\@undefined
\global\let\oldcontentsline\contentsline
\gdef\contentsline#1#2#3#4{\oldcontentsline{#1}{#2}{#3}}
\global\let\oldnewlabel\newlabel
\gdef\newlabel#1#2{\newlabelxx{#1}#2}
\gdef\newlabelxx#1#2#3#4#5#6{\oldnewlabel{#1}{{#2}{#3}}}
\AtEndDocument{\ifx\hyper@anchor\@undefined
\let\contentsline\oldcontentsline
\let\newlabel\oldnewlabel
\fi}
\fi}
\global\let\hyper@last\relax 
\gdef\HyperFirstAtBeginDocument#1{#1}
\providecommand\HyField@AuxAddToFields[1]{}
\providecommand\HyField@AuxAddToCoFields[2]{}
\pgfsyspdfmark {pgfid2}{4736286}{50644704}
\providecommand \oddpage@label [2]{}
\providecommand\tcolorbox@label[2]{}
\@writefile{toc}{\vskip -40pt}
\babel@aux{english}{}
\pgfsyspdfmark {pgfid1}{4736286}{49989344}
\newlabel{warranty}{{}{i}{}{Doc-Start}{}}
\newlabel{disclaimer}{{}{i}{}{Doc-Start}{}}
\newlabel{copyright-notices}{{}{i}{}{Doc-Start}{}}
\newlabel{trademark-notices}{{}{i}{}{Doc-Start}{}}
\newlabel{contact-us}{{}{i}{}{Doc-Start}{}}
\newlabel{rn/index::doc}{{}{1}{}{section*.2}{}}
\@writefile{toc}{\contentsline {chapter}{\numberline {1}1.0.0 (September 2019)}{1}{chapter.1}}
\@writefile{lof}{\addvspace {10\p@ }}
\@writefile{lot}{\addvspace {10\p@ }}
\newlabel{rn/release_1-0-0:september-2019}{{1}{1}{1.0.0 (September 2019)}{chapter.1}{}}
\newlabel{rn/release_1-0-0:release-notes}{{1}{1}{1.0.0 (September 2019)}{chapter.1}{}}
\newlabel{rn/release_1-0-0::doc}{{1}{1}{1.0.0 (September 2019)}{chapter.1}{}}
\@writefile{toc}{\contentsline {section}{\numberline {1.1}Known issues}{1}{section.1.1}}
\newlabel{rn/release_1-0-0:known-issues}{{1.1}{1}{Known issues}{section.1.1}{}}
\@writefile{toc}{\contentsline {subsection}{\numberline {1.1.1}Authentication}{1}{subsection.1.1.1}}
\newlabel{rn/release_1-0-0:authentication}{{1.1.1}{1}{Authentication}{subsection.1.1.1}{}}
\@writefile{toc}{\contentsline {chapter}{\numberline {2}1.0.1 (October 2019)}{2}{chapter.2}}
\@writefile{lof}{\addvspace {10\p@ }}
\@writefile{lot}{\addvspace {10\p@ }}
\newlabel{rn/release_1-0-1::doc}{{2}{2}{1.0.1 (October 2019)}{chapter.2}{}}
\newlabel{rn/release_1-0-1:october-2019}{{2}{2}{1.0.1 (October 2019)}{chapter.2}{}}
\@writefile{toc}{\contentsline {section}{\numberline {2.1}Summary}{2}{section.2.1}}
\newlabel{rn/release_1-0-1:summary}{{2.1}{2}{Summary}{section.2.1}{}}
\@writefile{toc}{\contentsline {section}{\numberline {2.2}Install Notes}{2}{section.2.2}}
\newlabel{rn/release_1-0-1:install-notes}{{2.2}{2}{Install Notes}{section.2.2}{}}
\@writefile{toc}{\contentsline {section}{\numberline {2.3}Known issues}{2}{section.2.3}}
\newlabel{rn/release_1-0-1:known-issues}{{2.3}{2}{Known issues}{section.2.3}{}}
\@writefile{toc}{\contentsline {subsection}{\numberline {2.3.1}Authentication}{2}{subsection.2.3.1}}
\newlabel{rn/release_1-0-1:authentication}{{2.3.1}{2}{Authentication}{subsection.2.3.1}{}}
\@writefile{toc}{\contentsline {section}{\numberline {2.4}New}{2}{section.2.4}}
\newlabel{rn/release_1-0-1:new}{{2.4}{2}{New}{section.2.4}{}}
\@writefile{toc}{\contentsline {section}{\numberline {2.5}Fixed}{2}{section.2.5}}
\newlabel{rn/release_1-0-1:fixed}{{2.5}{2}{Fixed}{section.2.5}{}}
\@writefile{toc}{\contentsline {subsection}{\numberline {2.5.1}Cassandra WriteTimeoutException on INSERT}{2}{subsection.2.5.1}}
\newlabel{rn/release_1-0-1:cassandra-writetimeoutexception-on-insert}{{2.5.1}{2}{Cassandra WriteTimeoutException on INSERT}{subsection.2.5.1}{}}
\@writefile{toc}{\contentsline {section}{\numberline {2.6}Updated}{2}{section.2.6}}
\newlabel{rn/release_1-0-1:updated}{{2.6}{2}{Updated}{section.2.6}{}}
\@writefile{toc}{\contentsline {chapter}{\numberline {3}1.0.2 (October 2019)}{3}{chapter.3}}
\@writefile{lof}{\addvspace {10\p@ }}
\@writefile{lot}{\addvspace {10\p@ }}
\newlabel{rn/release_1-0-2::doc}{{3}{3}{1.0.2 (October 2019)}{chapter.3}{}}
\newlabel{rn/release_1-0-2:october-2019}{{3}{3}{1.0.2 (October 2019)}{chapter.3}{}}
\@writefile{toc}{\contentsline {section}{\numberline {3.1}Summary}{3}{section.3.1}}
\newlabel{rn/release_1-0-2:summary}{{3.1}{3}{Summary}{section.3.1}{}}
\@writefile{toc}{\contentsline {section}{\numberline {3.2}Install Notes}{3}{section.3.2}}
\newlabel{rn/release_1-0-2:install-notes}{{3.2}{3}{Install Notes}{section.3.2}{}}
\@writefile{toc}{\contentsline {section}{\numberline {3.3}Known issues}{3}{section.3.3}}
\newlabel{rn/release_1-0-2:known-issues}{{3.3}{3}{Known issues}{section.3.3}{}}
\@writefile{toc}{\contentsline {subsection}{\numberline {3.3.1}Authentication}{3}{subsection.3.3.1}}
\newlabel{rn/release_1-0-2:authentication}{{3.3.1}{3}{Authentication}{subsection.3.3.1}{}}
\@writefile{toc}{\contentsline {section}{\numberline {3.4}New}{3}{section.3.4}}
\newlabel{rn/release_1-0-2:new}{{3.4}{3}{New}{section.3.4}{}}
\@writefile{toc}{\contentsline {section}{\numberline {3.5}Fixed}{3}{section.3.5}}
\newlabel{rn/release_1-0-2:fixed}{{3.5}{3}{Fixed}{section.3.5}{}}
\@writefile{toc}{\contentsline {subsection}{\numberline {3.5.1}Ingestion Service validation of large JSON data is very slow}{3}{subsection.3.5.1}}
\newlabel{rn/release_1-0-2:ingestion-service-validation-of-large-json-data-is-very-slow}{{3.5.1}{3}{Ingestion Service validation of large JSON data is very slow}{subsection.3.5.1}{}}
\@writefile{toc}{\contentsline {subsection}{\numberline {3.5.2}Configurable Cassandra reconnection policy}{4}{subsection.3.5.2}}
\newlabel{rn/release_1-0-2:configurable-cassandra-reconnection-policy}{{3.5.2}{4}{Configurable Cassandra reconnection policy}{subsection.3.5.2}{}}
\@writefile{toc}{\contentsline {subsection}{\numberline {3.5.3}Retry Cassandra connection on startup}{4}{subsection.3.5.3}}
\newlabel{rn/release_1-0-2:retry-cassandra-connection-on-startup}{{3.5.3}{4}{Retry Cassandra connection on startup}{subsection.3.5.3}{}}
\@writefile{toc}{\contentsline {subsection}{\numberline {3.5.4}Default MAX\_RETRIES changed for Propagation Service}{4}{subsection.3.5.4}}
\newlabel{rn/release_1-0-2:default-max-retries-changed-for-propagation-service}{{3.5.4}{4}{Default MAX\_RETRIES changed for Propagation Service}{subsection.3.5.4}{}}
\@writefile{toc}{\contentsline {subsection}{\numberline {3.5.5}Propagation Service should not retry in all cases}{4}{subsection.3.5.5}}
\newlabel{rn/release_1-0-2:propagation-service-should-not-retry-in-all-cases}{{3.5.5}{4}{Propagation Service should not retry in all cases}{subsection.3.5.5}{}}
\@writefile{toc}{\contentsline {subsection}{\numberline {3.5.6}Failure directory configurable for Propagation Service}{4}{subsection.3.5.6}}
\newlabel{rn/release_1-0-2:failure-directory-configurable-for-propagation-service}{{3.5.6}{4}{Failure directory configurable for Propagation Service}{subsection.3.5.6}{}}
\@writefile{toc}{\contentsline {section}{\numberline {3.6}Updated}{4}{section.3.6}}
\newlabel{rn/release_1-0-2:updated}{{3.6}{4}{Updated}{section.3.6}{}}
\@writefile{toc}{\contentsline {subsection}{\numberline {3.6.1}Docker image size significantly reduced}{4}{subsection.3.6.1}}
\newlabel{rn/release_1-0-2:docker-image-size-significantly-reduced}{{3.6.1}{4}{Docker image size significantly reduced}{subsection.3.6.1}{}}
\@writefile{toc}{\contentsline {subsection}{\numberline {3.6.2}HTTPS supported}{4}{subsection.3.6.2}}
\newlabel{rn/release_1-0-2:https-supported}{{3.6.2}{4}{HTTPS supported}{subsection.3.6.2}{}}
\@writefile{toc}{\contentsline {subsection}{\numberline {3.6.3}New lineage property \sphinxstyleliteralintitle {userId} supported}{5}{subsection.3.6.3}}
\newlabel{rn/release_1-0-2:new-lineage-property-userid-supported}{{3.6.3}{5}{New lineage property \sphinxstyleliteralintitle {userId} supported}{subsection.3.6.3}{}}
\@writefile{toc}{\contentsline {chapter}{\numberline {4}1.0.3 (November 2019)}{6}{chapter.4}}
\@writefile{lof}{\addvspace {10\p@ }}
\@writefile{lot}{\addvspace {10\p@ }}
\newlabel{rn/release_1-0-3:november-2019}{{4}{6}{1.0.3 (November 2019)}{chapter.4}{}}
\newlabel{rn/release_1-0-3::doc}{{4}{6}{1.0.3 (November 2019)}{chapter.4}{}}
\@writefile{toc}{\contentsline {section}{\numberline {4.1}Summary}{6}{section.4.1}}
\newlabel{rn/release_1-0-3:summary}{{4.1}{6}{Summary}{section.4.1}{}}
\@writefile{toc}{\contentsline {section}{\numberline {4.2}Install Notes}{6}{section.4.2}}
\newlabel{rn/release_1-0-3:install-notes}{{4.2}{6}{Install Notes}{section.4.2}{}}
\@writefile{toc}{\contentsline {section}{\numberline {4.3}Known issues}{6}{section.4.3}}
\newlabel{rn/release_1-0-3:known-issues}{{4.3}{6}{Known issues}{section.4.3}{}}
\@writefile{toc}{\contentsline {subsection}{\numberline {4.3.1}Authentication}{6}{subsection.4.3.1}}
\newlabel{rn/release_1-0-3:authentication}{{4.3.1}{6}{Authentication}{subsection.4.3.1}{}}
\@writefile{toc}{\contentsline {section}{\numberline {4.4}New}{7}{section.4.4}}
\newlabel{rn/release_1-0-3:new}{{4.4}{7}{New}{section.4.4}{}}
\@writefile{toc}{\contentsline {subsection}{\numberline {4.4.1}Support data lineage for correction values}{7}{subsection.4.4.1}}
\newlabel{rn/release_1-0-3:support-data-lineage-for-correction-values}{{4.4.1}{7}{Support data lineage for correction values}{subsection.4.4.1}{}}
\@writefile{toc}{\contentsline {section}{\numberline {4.5}Fixed}{7}{section.4.5}}
\newlabel{rn/release_1-0-3:fixed}{{4.5}{7}{Fixed}{section.4.5}{}}
\@writefile{toc}{\contentsline {section}{\numberline {4.6}Updated}{7}{section.4.6}}
\newlabel{rn/release_1-0-3:updated}{{4.6}{7}{Updated}{section.4.6}{}}
\@writefile{toc}{\contentsline {subsection}{\numberline {4.6.1}Include function return value in lineage}{7}{subsection.4.6.1}}
\newlabel{rn/release_1-0-3:include-function-return-value-in-lineage}{{4.6.1}{7}{Include function return value in lineage}{subsection.4.6.1}{}}
\@writefile{toc}{\contentsline {chapter}{\numberline {5}1.0.4 (TBD)}{8}{chapter.5}}
\@writefile{lof}{\addvspace {10\p@ }}
\@writefile{lot}{\addvspace {10\p@ }}
\newlabel{rn/release_1-0-4::doc}{{5}{8}{1.0.4 (TBD)}{chapter.5}{}}
\newlabel{rn/release_1-0-4:tbd}{{5}{8}{1.0.4 (TBD)}{chapter.5}{}}
\@writefile{toc}{\contentsline {section}{\numberline {5.1}Summary}{8}{section.5.1}}
\newlabel{rn/release_1-0-4:summary}{{5.1}{8}{Summary}{section.5.1}{}}
\@writefile{toc}{\contentsline {section}{\numberline {5.2}Install Notes}{8}{section.5.2}}
\newlabel{rn/release_1-0-4:install-notes}{{5.2}{8}{Install Notes}{section.5.2}{}}
\@writefile{toc}{\contentsline {section}{\numberline {5.3}Known issues}{8}{section.5.3}}
\newlabel{rn/release_1-0-4:known-issues}{{5.3}{8}{Known issues}{section.5.3}{}}
\@writefile{toc}{\contentsline {subsection}{\numberline {5.3.1}Authentication}{8}{subsection.5.3.1}}
\newlabel{rn/release_1-0-4:authentication}{{5.3.1}{8}{Authentication}{subsection.5.3.1}{}}
\@writefile{toc}{\contentsline {section}{\numberline {5.4}New}{8}{section.5.4}}
\newlabel{rn/release_1-0-4:new}{{5.4}{8}{New}{section.5.4}{}}
\@writefile{toc}{\contentsline {subsection}{\numberline {5.4.1}Support caused/causedBy relations between attribute value changes}{8}{subsection.5.4.1}}
\newlabel{rn/release_1-0-4:support-caused-causedby-relations-between-attribute-value-changes}{{5.4.1}{8}{Support caused/causedBy relations between attribute value changes}{subsection.5.4.1}{}}
\@writefile{toc}{\contentsline {section}{\numberline {5.5}Fixed}{9}{section.5.5}}
\newlabel{rn/release_1-0-4:fixed}{{5.5}{9}{Fixed}{section.5.5}{}}
\@writefile{toc}{\contentsline {section}{\numberline {5.6}Updated}{9}{section.5.6}}
\newlabel{rn/release_1-0-4:updated}{{5.6}{9}{Updated}{section.5.6}{}}
\pgfsyspdfmark {pgfid4}{4736286}{50644704}
\pgfsyspdfmark {pgfid3}{19579138}{49989344}
